{
    "dev": {
        "html": "./src/*.html",
        "styles": "./src/styles/*.css",
        "scripts": "./src/scripts/*.js",
        "images": "./src/images/*"
    },
    "prod": {
        "html": "./build/*.html",
        "styles": "./build/styles/*.css",
        "scripts": "./build/scripts/*.js",
        "images": "./build/images/*",
        "target": "./build",
        "stylesTarget": "./build/styles",
        "scriptsTarget": "./build/scripts",
        "imagesTarget": "./build/images"
    },
    "documentation": {
        "html": "./html-documentation"
    }
}